<svg width="141" height="40" viewBox="0 0 141 40" fill="none" xmlns="http://www.w3.org/2000/svg">
<rect width="138" height="35" rx="17.5" fill="#FAFF00"/>
<rect opacity="0.3" x="3" y="5" width="138" height="35" rx="17.5" fill="#FAFF00"/>
<path d="M20.2807 23.08C19.9074 23.08 19.6034 22.968 19.3687 22.744C19.1447 22.52 19.0327 22.2213 19.0327 21.848V13.752H16.4407C15.6514 13.752 15.2567 13.4107 15.2567 12.728C15.2567 12.056 15.6514 11.72 16.4407 11.72H24.1207C24.91 11.72 25.3047 12.056 25.3047 12.728C25.3047 13.4107 24.91 13.752 24.1207 13.752H21.5287V21.848C21.5287 22.2213 21.4167 22.52 21.1927 22.744C20.9687 22.968 20.6647 23.08 20.2807 23.08ZM28.3549 23.096C28.0029 23.096 27.7096 23 27.4749 22.808C27.2509 22.616 27.1389 22.3333 27.1389 21.96V16.12C27.1389 15.7467 27.2563 15.464 27.4909 15.272C27.7256 15.08 28.0136 14.984 28.3549 14.984C28.6963 14.984 28.9789 15.08 29.2029 15.272C29.4376 15.464 29.5549 15.7467 29.5549 16.12V21.96C29.5549 22.3333 29.4376 22.616 29.2029 22.808C28.9789 23 28.6963 23.096 28.3549 23.096ZM25.9389 12.632C25.5976 12.376 25.4269 12.088 25.4269 11.768C25.4269 11.5013 25.5283 11.2773 25.7309 11.096C25.9229 10.904 26.1576 10.808 26.4349 10.808C26.8189 10.808 27.1389 10.9893 27.3949 11.352L28.7709 13.192C28.8669 13.3307 28.9149 13.4693 28.9149 13.608C28.9149 13.7787 28.8563 13.9227 28.7389 14.04C28.6216 14.1573 28.4776 14.216 28.3069 14.216C28.1683 14.216 28.0296 14.1627 27.8909 14.056L25.9389 12.632ZM41.0846 14.952C41.9379 14.952 42.5939 15.2133 43.0526 15.736C43.5112 16.248 43.7406 17.0907 43.7406 18.264V21.96C43.7406 22.3333 43.6286 22.616 43.4046 22.808C43.1806 23 42.8926 23.096 42.5406 23.096C42.1992 23.096 41.9112 23 41.6766 22.808C41.4419 22.616 41.3246 22.3333 41.3246 21.96V18.232C41.3246 17.72 41.2339 17.3627 41.0526 17.16C40.8819 16.9467 40.6152 16.84 40.2526 16.84C39.8046 16.84 39.4472 16.9947 39.1806 17.304C38.9139 17.6133 38.7806 18.0453 38.7806 18.6V21.96C38.7806 22.3333 38.6686 22.616 38.4446 22.808C38.2206 23 37.9326 23.096 37.5806 23.096C37.2392 23.096 36.9512 23 36.7166 22.808C36.4819 22.616 36.3646 22.3333 36.3646 21.96V18.232C36.3646 17.72 36.2739 17.3627 36.0926 17.16C35.9219 16.9467 35.6552 16.84 35.2926 16.84C34.8446 16.84 34.4872 16.9947 34.2206 17.304C33.9539 17.6133 33.8206 18.0453 33.8206 18.6V21.96C33.8206 22.3333 33.7032 22.616 33.4686 22.808C33.2446 23 32.9619 23.096 32.6206 23.096C32.2792 23.096 31.9912 23 31.7566 22.808C31.5219 22.616 31.4046 22.3333 31.4046 21.96V16.088C31.4046 15.736 31.5219 15.464 31.7566 15.272C32.0019 15.08 32.2952 14.984 32.6366 14.984C32.9566 14.984 33.2232 15.08 33.4366 15.272C33.6499 15.4533 33.7566 15.7093 33.7566 16.04V16.2C34.0126 15.7947 34.3432 15.4853 34.7486 15.272C35.1646 15.0587 35.6339 14.952 36.1566 14.952C36.7219 14.952 37.1966 15.0693 37.5806 15.304C37.9752 15.528 38.2792 15.896 38.4926 16.408C38.7379 15.96 39.0846 15.608 39.5326 15.352C39.9912 15.0853 40.5086 14.952 41.0846 14.952ZM55.0056 14.952C56.8296 14.952 57.7416 16.056 57.7416 18.264V21.96C57.7416 22.312 57.6296 22.5893 57.4056 22.792C57.1922 22.9947 56.8989 23.096 56.5256 23.096C56.1522 23.096 55.8589 22.9947 55.6456 22.792C55.4322 22.5893 55.3256 22.312 55.3256 21.96V18.232C55.3256 17.7627 55.2242 17.416 55.0216 17.192C54.8296 16.9573 54.5256 16.84 54.1096 16.84C53.6082 16.84 53.2029 17 52.8936 17.32C52.5949 17.64 52.4456 18.0667 52.4456 18.6V21.96C52.4456 22.312 52.3389 22.5893 52.1256 22.792C51.9122 22.9947 51.6189 23.096 51.2456 23.096C50.8722 23.096 50.5736 22.9947 50.3496 22.792C50.1362 22.5893 50.0296 22.312 50.0296 21.96V12.744C50.0296 12.4133 50.1416 12.1467 50.3656 11.944C50.6002 11.7413 50.9042 11.64 51.2776 11.64C51.6296 11.64 51.9122 11.736 52.1256 11.928C52.3389 12.12 52.4456 12.376 52.4456 12.696V16.184C52.7229 15.7787 53.0802 15.4747 53.5176 15.272C53.9549 15.0587 54.4509 14.952 55.0056 14.952ZM60.7612 23.096C60.4092 23.096 60.1159 23 59.8812 22.808C59.6572 22.616 59.5452 22.3333 59.5452 21.96V16.12C59.5452 15.7467 59.6625 15.464 59.8972 15.272C60.1319 15.08 60.4199 14.984 60.7612 14.984C61.1025 14.984 61.3852 15.08 61.6092 15.272C61.8439 15.464 61.9612 15.7467 61.9612 16.12V21.96C61.9612 22.3333 61.8439 22.616 61.6092 22.808C61.3852 23 61.1025 23.096 60.7612 23.096ZM60.7612 13.704C60.3345 13.704 59.9985 13.5973 59.7532 13.384C59.5079 13.16 59.3852 12.8613 59.3852 12.488C59.3852 12.1147 59.5079 11.8213 59.7532 11.608C59.9985 11.3947 60.3345 11.288 60.7612 11.288C61.1772 11.288 61.5079 11.4 61.7532 11.624C62.0092 11.8373 62.1372 12.1253 62.1372 12.488C62.1372 12.8613 62.0145 13.16 61.7692 13.384C61.5239 13.5973 61.1879 13.704 60.7612 13.704ZM70.1148 20.664C70.3281 20.664 70.4988 20.7493 70.6268 20.92C70.7655 21.0907 70.8348 21.3093 70.8348 21.576C70.8348 21.7573 70.7815 21.928 70.6748 22.088C70.5681 22.2373 70.4188 22.3653 70.2268 22.472C69.8641 22.664 69.4428 22.824 68.9628 22.952C68.4828 23.0693 68.0401 23.128 67.6348 23.128C66.7815 23.128 66.0348 22.9627 65.3948 22.632C64.7655 22.3013 64.2801 21.832 63.9388 21.224C63.5975 20.6053 63.4268 19.88 63.4268 19.048C63.4268 18.248 63.5921 17.5387 63.9228 16.92C64.2535 16.3013 64.7121 15.8213 65.2988 15.48C65.8855 15.128 66.5521 14.952 67.2988 14.952C68.0135 14.952 68.6375 15.112 69.1708 15.432C69.7148 15.7413 70.1361 16.1893 70.4348 16.776C70.7335 17.352 70.8828 18.0293 70.8828 18.808C70.8828 19.0427 70.8241 19.224 70.7068 19.352C70.6001 19.4693 70.4455 19.528 70.2428 19.528H65.7628C65.8375 20.1573 66.0295 20.616 66.3388 20.904C66.6481 21.1813 67.0908 21.32 67.6668 21.32C67.9761 21.32 68.2535 21.2827 68.4988 21.208C68.7441 21.1333 69.0161 21.032 69.3148 20.904C69.4641 20.84 69.6081 20.7867 69.7468 20.744C69.8855 20.6907 70.0081 20.664 70.1148 20.664ZM67.3628 16.616C66.9041 16.616 66.5361 16.7653 66.2588 17.064C65.9815 17.352 65.8161 17.7733 65.7628 18.328H68.8508C68.8188 17.7627 68.6748 17.336 68.4188 17.048C68.1735 16.76 67.8215 16.616 67.3628 16.616ZM70.0028 12.232C69.9815 12.3173 69.9121 12.3867 69.7948 12.44C69.6881 12.4827 69.5655 12.504 69.4268 12.504C69.2561 12.504 69.1068 12.472 68.9788 12.408C68.8615 12.3333 68.8028 12.2267 68.8028 12.088C68.8028 11.896 68.8668 11.752 68.9948 11.656C69.1335 11.56 69.3148 11.4693 69.5388 11.384C69.6241 11.352 69.6988 11.32 69.7628 11.288C69.8268 11.256 69.8588 11.224 69.8588 11.192C69.8588 11.128 69.8161 11.0853 69.7308 11.064C69.6455 11.032 69.5068 11.016 69.3148 11.016C69.2401 11.016 69.1175 11.0267 68.9468 11.048C68.7548 11.0693 68.6108 11.08 68.5148 11.08C68.3655 11.08 68.2428 11.0373 68.1468 10.952C68.0508 10.856 68.0028 10.7493 68.0028 10.632C68.0028 10.472 68.0988 10.3547 68.2908 10.28C68.6321 10.152 69.0321 10.088 69.4908 10.088C70.0561 10.088 70.4988 10.1787 70.8188 10.36C71.1388 10.5413 71.2988 10.7707 71.2988 11.048C71.2988 11.2507 71.2348 11.4053 71.1068 11.512C70.9788 11.6187 70.7921 11.72 70.5468 11.816C70.3761 11.8907 70.2481 11.9547 70.1628 12.008C70.0775 12.0613 70.0241 12.136 70.0028 12.232ZM66.0828 14.04C65.9441 14.1467 65.7948 14.2 65.6348 14.2C65.4428 14.2 65.2721 14.136 65.1228 14.008C64.9841 13.8693 64.9148 13.7093 64.9148 13.528C64.9148 13.2933 65.0481 13.0853 65.3148 12.904L66.4828 12.104C66.7601 11.9227 67.0321 11.832 67.2988 11.832C67.5335 11.832 67.8055 11.9227 68.1148 12.104L69.2828 12.904C69.5495 13.0853 69.6828 13.2933 69.6828 13.528C69.6828 13.7093 69.6081 13.8693 69.4588 14.008C69.3095 14.1467 69.1441 14.216 68.9628 14.216C68.8241 14.216 68.6908 14.168 68.5628 14.072L67.2988 13.112L66.0828 14.04ZM78.6941 14.984C79.0674 14.984 79.3607 15.0853 79.5741 15.288C79.7981 15.4907 79.9101 15.768 79.9101 16.12V21.992C79.9101 22.3227 79.7927 22.5893 79.5581 22.792C79.3341 22.9947 79.0407 23.096 78.6781 23.096C78.3367 23.096 78.0647 23 77.8621 22.808C77.6594 22.616 77.5581 22.36 77.5581 22.04V21.88C77.3127 22.2853 76.9874 22.5947 76.5821 22.808C76.1874 23.0213 75.7394 23.128 75.2381 23.128C74.2461 23.128 73.5047 22.856 73.0141 22.312C72.5341 21.7573 72.2941 20.9253 72.2941 19.816V16.12C72.2941 15.768 72.4007 15.4907 72.6141 15.288C72.8381 15.0853 73.1367 14.984 73.5101 14.984C73.8834 14.984 74.1767 15.0853 74.3901 15.288C74.6034 15.4907 74.7101 15.768 74.7101 16.12V19.864C74.7101 20.3333 74.8061 20.68 74.9981 20.904C75.2007 21.128 75.5047 21.24 75.9101 21.24C76.3794 21.24 76.7581 21.08 77.0461 20.76C77.3447 20.44 77.4941 20.0187 77.4941 19.496V16.12C77.4941 15.768 77.6007 15.4907 77.8141 15.288C78.0274 15.0853 78.3207 14.984 78.6941 14.984ZM90.6007 21.336C90.9207 21.3573 91.1554 21.4373 91.3047 21.576C91.454 21.7147 91.5287 21.9173 91.5287 22.184C91.5287 22.4933 91.406 22.728 91.1607 22.888C90.9154 23.048 90.5634 23.112 90.1047 23.08L89.6567 23.048C87.79 22.8987 86.8567 21.9227 86.8567 20.12V16.952H86.2167C85.8647 16.952 85.598 16.8773 85.4167 16.728C85.2354 16.568 85.1447 16.344 85.1447 16.056C85.1447 15.7573 85.2354 15.5333 85.4167 15.384C85.598 15.224 85.8647 15.144 86.2167 15.144H86.8567V13.896C86.8567 13.544 86.9634 13.2667 87.1767 13.064C87.4007 12.8613 87.6994 12.76 88.0727 12.76C88.446 12.76 88.7394 12.8613 88.9527 13.064C89.166 13.2667 89.2727 13.544 89.2727 13.896V15.144H90.3927C91.118 15.144 91.4807 15.448 91.4807 16.056C91.4807 16.344 91.39 16.568 91.2087 16.728C91.0274 16.8773 90.7554 16.952 90.3927 16.952H89.2727V20.296C89.2727 20.616 89.3474 20.8613 89.4967 21.032C89.646 21.192 89.8647 21.2827 90.1527 21.304L90.6007 21.336ZM97.3962 14.952C99.2202 14.952 100.132 16.056 100.132 18.264V21.96C100.132 22.312 100.02 22.5893 99.7962 22.792C99.5829 22.9947 99.2895 23.096 98.9162 23.096C98.5429 23.096 98.2495 22.9947 98.0362 22.792C97.8229 22.5893 97.7162 22.312 97.7162 21.96V18.232C97.7162 17.7627 97.6149 17.416 97.4122 17.192C97.2202 16.9573 96.9162 16.84 96.5002 16.84C95.9989 16.84 95.5935 17 95.2842 17.32C94.9855 17.64 94.8362 18.0667 94.8362 18.6V21.96C94.8362 22.312 94.7295 22.5893 94.5162 22.792C94.3029 22.9947 94.0095 23.096 93.6362 23.096C93.2629 23.096 92.9642 22.9947 92.7402 22.792C92.5269 22.5893 92.4202 22.312 92.4202 21.96V12.744C92.4202 12.4133 92.5322 12.1467 92.7562 11.944C92.9909 11.7413 93.2949 11.64 93.6682 11.64C94.0202 11.64 94.3029 11.736 94.5162 11.928C94.7295 12.12 94.8362 12.376 94.8362 12.696V16.184C95.1135 15.7787 95.4709 15.4747 95.9082 15.272C96.3455 15.0587 96.8415 14.952 97.3962 14.952ZM108.24 20.664C108.453 20.664 108.624 20.7493 108.752 20.92C108.89 21.0907 108.96 21.3093 108.96 21.576C108.96 21.7573 108.906 21.928 108.8 22.088C108.693 22.2373 108.544 22.3653 108.352 22.472C107.989 22.664 107.568 22.824 107.088 22.952C106.608 23.0693 106.165 23.128 105.76 23.128C104.906 23.128 104.16 22.9627 103.52 22.632C102.89 22.3013 102.405 21.832 102.064 21.224C101.722 20.6053 101.552 19.88 101.552 19.048C101.552 18.248 101.717 17.5387 102.048 16.92C102.378 16.3013 102.837 15.8213 103.424 15.48C104.01 15.128 104.677 14.952 105.424 14.952C106.138 14.952 106.762 15.112 107.296 15.432C107.84 15.7413 108.261 16.1893 108.56 16.776C108.858 17.352 109.008 18.0293 109.008 18.808C109.008 19.0427 108.949 19.224 108.832 19.352C108.725 19.4693 108.57 19.528 108.368 19.528H103.888C103.962 20.1573 104.154 20.616 104.464 20.904C104.773 21.1813 105.216 21.32 105.792 21.32C106.101 21.32 106.378 21.2827 106.624 21.208C106.869 21.1333 107.141 21.032 107.44 20.904C107.589 20.84 107.733 20.7867 107.872 20.744C108.01 20.6907 108.133 20.664 108.24 20.664ZM105.488 16.616C105.029 16.616 104.661 16.7653 104.384 17.064C104.106 17.352 103.941 17.7733 103.888 18.328H106.976C106.944 17.7627 106.8 17.336 106.544 17.048C106.298 16.76 105.946 16.616 105.488 16.616ZM104.368 13.832C104.197 14.0773 103.984 14.2 103.728 14.2C103.525 14.2 103.349 14.1307 103.2 13.992C103.05 13.8533 102.976 13.688 102.976 13.496C102.976 13.3253 103.034 13.1653 103.152 13.016L104.496 11.288C104.645 11.1067 104.784 10.9787 104.912 10.904C105.05 10.8187 105.221 10.776 105.424 10.776C105.626 10.776 105.792 10.8187 105.92 10.904C106.058 10.9787 106.202 11.112 106.352 11.304L107.696 13.016C107.813 13.1653 107.872 13.32 107.872 13.48C107.872 13.672 107.792 13.8427 107.632 13.992C107.482 14.1307 107.312 14.2 107.12 14.2C106.864 14.2 106.65 14.0773 106.48 13.832L105.424 12.264L104.368 13.832ZM120.147 14.952C121 14.952 121.656 15.2133 122.115 15.736C122.574 16.248 122.803 17.0907 122.803 18.264V21.96C122.803 22.3333 122.691 22.616 122.467 22.808C122.243 23 121.955 23.096 121.603 23.096C121.262 23.096 120.974 23 120.739 22.808C120.504 22.616 120.387 22.3333 120.387 21.96V18.232C120.387 17.72 120.296 17.3627 120.115 17.16C119.944 16.9467 119.678 16.84 119.315 16.84C118.867 16.84 118.51 16.9947 118.243 17.304C117.976 17.6133 117.843 18.0453 117.843 18.6V21.96C117.843 22.3333 117.731 22.616 117.507 22.808C117.283 23 116.995 23.096 116.643 23.096C116.302 23.096 116.014 23 115.779 22.808C115.544 22.616 115.427 22.3333 115.427 21.96V18.232C115.427 17.72 115.336 17.3627 115.155 17.16C114.984 16.9467 114.718 16.84 114.355 16.84C113.907 16.84 113.55 16.9947 113.283 17.304C113.016 17.6133 112.883 18.0453 112.883 18.6V21.96C112.883 22.3333 112.766 22.616 112.531 22.808C112.307 23 112.024 23.096 111.683 23.096C111.342 23.096 111.054 23 110.819 22.808C110.584 22.616 110.467 22.3333 110.467 21.96V16.088C110.467 15.736 110.584 15.464 110.819 15.272C111.064 15.08 111.358 14.984 111.699 14.984C112.019 14.984 112.286 15.08 112.499 15.272C112.712 15.4533 112.819 15.7093 112.819 16.04V16.2C113.075 15.7947 113.406 15.4853 113.811 15.272C114.227 15.0587 114.696 14.952 115.219 14.952C115.784 14.952 116.259 15.0693 116.643 15.304C117.038 15.528 117.342 15.896 117.555 16.408C117.8 15.96 118.147 15.608 118.595 15.352C119.054 15.0853 119.571 14.952 120.147 14.952Z" fill="#333333"/>
</svg>
