<svg width="115" height="37" viewBox="0 0 115 37" fill="none" xmlns="http://www.w3.org/2000/svg">
<rect x="12.1973" y="9.99243" width="102.803" height="19.1667" rx="9.58333" fill="#11A1E2"/>
<path d="M44.4591 23.9341C44.1303 23.9341 43.8625 23.8355 43.6558 23.6382C43.4585 23.4409 43.3599 23.1778 43.3599 22.8489V15.7178H41.0768C40.3815 15.7178 40.0339 15.4172 40.0339 14.8159C40.0339 14.2239 40.3815 13.928 41.0768 13.928H47.8415C48.5368 13.928 48.8844 14.2239 48.8844 14.8159C48.8844 15.4172 48.5368 15.7178 47.8415 15.7178H45.5584V22.8489C45.5584 23.1778 45.4598 23.4409 45.2624 23.6382C45.0651 23.8355 44.7974 23.9341 44.4591 23.9341ZM51.8579 23.9764C51.1251 23.9764 50.4815 23.8308 49.9272 23.5395C49.3728 23.2389 48.9453 22.8208 48.6447 22.2852C48.344 21.7403 48.1937 21.1014 48.1937 20.3685C48.1937 19.6357 48.344 19.0015 48.6447 18.466C48.9453 17.921 49.3728 17.5029 49.9272 17.2117C50.4815 16.9204 51.1251 16.7748 51.8579 16.7748C52.5908 16.7748 53.2344 16.9204 53.7887 17.2117C54.343 17.5029 54.7705 17.921 55.0712 18.466C55.3718 19.0015 55.5221 19.6357 55.5221 20.3685C55.5221 21.1014 55.3718 21.7403 55.0712 22.2852C54.7705 22.8208 54.343 23.2389 53.7887 23.5395C53.2344 23.8308 52.5908 23.9764 51.8579 23.9764ZM51.8579 22.3557C52.8914 22.3557 53.4082 21.6933 53.4082 20.3685C53.4082 19.7015 53.2719 19.2035 52.9995 18.8747C52.7364 18.5458 52.3559 18.3814 51.8579 18.3814C50.8244 18.3814 50.3077 19.0438 50.3077 20.3685C50.3077 21.6933 50.8244 22.3557 51.8579 22.3557ZM50.9278 15.7883C50.7775 16.0044 50.5895 16.1124 50.3641 16.1124C50.1855 16.1124 50.0305 16.0514 49.899 15.9292C49.7674 15.8071 49.7017 15.6614 49.7017 15.4923C49.7017 15.342 49.7533 15.2011 49.8567 15.0695L51.0405 13.5475C51.1721 13.3877 51.2942 13.275 51.4069 13.2092C51.5291 13.1341 51.6794 13.0965 51.8579 13.0965C52.0364 13.0965 52.1821 13.1341 52.2948 13.2092C52.417 13.275 52.5438 13.3924 52.6753 13.5616L53.8591 15.0695C53.9625 15.2011 54.0142 15.3373 54.0142 15.4782C54.0142 15.6473 53.9437 15.7977 53.8028 15.9292C53.6712 16.0514 53.5209 16.1124 53.3518 16.1124C53.1263 16.1124 52.9384 16.0044 52.7881 15.7883L51.8579 14.4072L50.9278 15.7883ZM57.8882 23.9482C57.5782 23.9482 57.3198 23.8636 57.1131 23.6945C56.9158 23.5254 56.8172 23.2764 56.8172 22.9476V17.8036C56.8172 17.4748 56.9205 17.2258 57.1272 17.0567C57.3339 16.8875 57.5876 16.803 57.8882 16.803C58.1889 16.803 58.4379 16.8875 58.6352 17.0567C58.8419 17.2258 58.9452 17.4748 58.9452 17.8036V22.9476C58.9452 23.2764 58.8419 23.5254 58.6352 23.6945C58.4379 23.8636 58.1889 23.9482 57.8882 23.9482ZM57.8882 15.6755C57.5124 15.6755 57.2165 15.5816 57.0004 15.3937C56.7843 15.1964 56.6762 14.9333 56.6762 14.6045C56.6762 14.2756 56.7843 14.0172 57.0004 13.8293C57.2165 13.6414 57.5124 13.5475 57.8882 13.5475C58.2547 13.5475 58.5459 13.6461 58.762 13.8434C58.9875 14.0313 59.1003 14.285 59.1003 14.6045C59.1003 14.9333 58.9922 15.1964 58.7761 15.3937C58.56 15.5816 58.2641 15.6755 57.8882 15.6755ZM60.5603 25.0898C60.316 25.0898 60.1187 25.0334 59.9684 24.9206C59.8275 24.8173 59.757 24.6717 59.757 24.4837C59.757 24.2958 59.8275 24.1455 59.9684 24.0328C60.1187 23.92 60.316 23.8636 60.5603 23.8636H66.0003C66.2446 23.8636 66.4372 23.92 66.5781 24.0328C66.7284 24.1455 66.8036 24.2958 66.8036 24.4837C66.8036 24.6717 66.7284 24.8173 66.5781 24.9206C66.4372 25.0334 66.2446 25.0898 66.0003 25.0898H60.5603ZM73.4729 17.7895C73.8018 18.0996 74.0508 18.4801 74.2199 18.931C74.389 19.3726 74.4736 19.8565 74.4736 20.3826C74.4736 21.1061 74.3232 21.7403 74.0226 22.2852C73.7219 22.8302 73.2944 23.2482 72.7401 23.5395C72.1858 23.8308 71.5422 23.9764 70.8093 23.9764C70.0765 23.9764 69.4329 23.8308 68.8786 23.5395C68.3243 23.2482 67.8968 22.8302 67.5961 22.2852C67.2955 21.7403 67.1451 21.1061 67.1451 20.3826C67.1451 19.6498 67.2955 19.0109 67.5961 18.466C67.8968 17.921 68.3196 17.5029 68.8645 17.2117C69.4188 16.9204 70.0671 16.7748 70.8093 16.7748C70.9409 16.7748 71.1852 16.7983 71.5422 16.8453C71.6831 16.8735 71.8147 16.8875 71.9368 16.8875C72.2281 16.8875 72.4535 16.8171 72.6133 16.6761C72.7824 16.5258 72.8857 16.2768 72.9233 15.9292C72.9609 15.591 73.0642 15.3514 73.2334 15.2105C73.4025 15.0601 73.6468 14.985 73.9662 14.985C74.2575 14.985 74.4689 15.0554 74.6004 15.1964C74.7413 15.3373 74.8118 15.5675 74.8118 15.8869C74.8118 16.3003 74.6897 16.6855 74.4454 17.0426C74.2105 17.3902 73.8863 17.6392 73.4729 17.7895ZM70.8093 22.3557C71.8428 22.3557 72.3596 21.698 72.3596 20.3826C72.3596 19.7062 72.2234 19.2035 71.9509 18.8747C71.6878 18.5458 71.3073 18.3814 70.8093 18.3814C69.7758 18.3814 69.2591 19.0485 69.2591 20.3826C69.2591 21.698 69.7758 22.3557 70.8093 22.3557ZM71.359 15.7178C71.3402 15.8494 71.2744 15.9574 71.1617 16.042C71.0583 16.1171 70.9409 16.1547 70.8093 16.1547C70.6684 16.1547 70.5463 16.1124 70.4429 16.0279C70.349 15.9339 70.302 15.8118 70.302 15.6614C70.302 15.4735 70.3443 15.3185 70.4288 15.1964C70.5228 15.0742 70.6496 14.9427 70.8093 14.8018C70.9127 14.7172 70.9879 14.642 71.0348 14.5763C71.0912 14.5105 71.1194 14.4447 71.1194 14.379C71.1194 14.1629 70.9738 14.0548 70.6825 14.0548C70.5416 14.0548 70.4053 14.0736 70.2738 14.1112C70.1423 14.1394 70.0624 14.1582 70.0342 14.1676C69.9121 14.2052 69.8087 14.177 69.7242 14.083C69.6396 13.9797 69.5973 13.8575 69.5973 13.7166C69.5973 13.6226 69.6208 13.5381 69.6678 13.4629C69.7148 13.3877 69.7852 13.3314 69.8792 13.2938C70.1986 13.181 70.5275 13.1247 70.8657 13.1247C71.3825 13.1247 71.7818 13.228 72.0636 13.4347C72.3549 13.632 72.5005 13.881 72.5005 14.1817C72.5005 14.4072 72.4441 14.5857 72.3314 14.7172C72.2281 14.8487 72.0683 14.9944 71.8522 15.1541C71.7019 15.2574 71.5845 15.3514 71.4999 15.436C71.4247 15.5205 71.3778 15.6145 71.359 15.7178ZM75.6169 25.0898C75.3726 25.0898 75.1753 25.0334 75.0249 24.9206C74.884 24.8173 74.8136 24.6717 74.8136 24.4837C74.8136 24.2958 74.884 24.1455 75.0249 24.0328C75.1753 23.92 75.3726 23.8636 75.6169 23.8636H81.0568C81.3011 23.8636 81.4937 23.92 81.6346 24.0328C81.785 24.1455 81.8601 24.2958 81.8601 24.4837C81.8601 24.6717 81.785 24.8173 81.6346 24.9206C81.4937 25.0334 81.3011 25.0898 81.0568 25.0898H75.6169ZM87.0182 16.7748C87.845 16.7748 88.4604 17.0191 88.8644 17.5076C89.2684 17.9868 89.4704 18.715 89.4704 19.6921V22.9476C89.4704 23.2576 89.3718 23.5019 89.1745 23.6804C88.9865 23.8589 88.7282 23.9482 88.3993 23.9482C88.0705 23.9482 87.8121 23.8589 87.6242 23.6804C87.4363 23.5019 87.3423 23.2576 87.3423 22.9476V19.7907C87.3423 19.321 87.2531 18.978 87.0746 18.7619C86.9055 18.5458 86.6377 18.4378 86.2713 18.4378C85.8297 18.4378 85.4727 18.5787 85.2002 18.8606C84.9371 19.1424 84.8056 19.5183 84.8056 19.988V22.9476C84.8056 23.2576 84.7116 23.5019 84.5237 23.6804C84.3358 23.8589 84.0774 23.9482 83.7486 23.9482C83.4198 23.9482 83.1567 23.8589 82.9594 23.6804C82.7715 23.5019 82.6775 23.2576 82.6775 22.9476V17.7754C82.6775 17.4842 82.7762 17.2493 82.9735 17.0708C83.1802 16.8922 83.4432 16.803 83.7627 16.803C84.054 16.803 84.2888 16.8922 84.4673 17.0708C84.6553 17.2399 84.7492 17.4607 84.7492 17.7331V17.9304C84.9935 17.5546 85.3082 17.2681 85.6935 17.0708C86.0881 16.8735 86.5296 16.7748 87.0182 16.7748ZM95.4421 16.7748C97.0487 16.7748 97.852 17.7472 97.852 19.6921V22.9476C97.852 23.2576 97.7533 23.5019 97.556 23.6804C97.3681 23.8589 97.1097 23.9482 96.7809 23.9482C96.4521 23.9482 96.1937 23.8589 96.0058 23.6804C95.8179 23.5019 95.7239 23.2576 95.7239 22.9476V19.6639C95.7239 19.2505 95.6347 18.9451 95.4561 18.7478C95.287 18.5411 95.0193 18.4378 94.6528 18.4378C94.2113 18.4378 93.8542 18.5787 93.5818 18.8606C93.3187 19.1424 93.1871 19.5183 93.1871 19.988V22.9476C93.1871 23.2576 93.0932 23.5019 92.9053 23.6804C92.7174 23.8589 92.459 23.9482 92.1302 23.9482C91.8013 23.9482 91.5383 23.8589 91.3409 23.6804C91.153 23.5019 91.0591 23.2576 91.0591 22.9476V14.8299C91.0591 14.5387 91.1577 14.3038 91.355 14.1253C91.5617 13.9468 91.8295 13.8575 92.1584 13.8575C92.4684 13.8575 92.7174 13.9421 92.9053 14.1112C93.0932 14.2803 93.1871 14.5058 93.1871 14.7877V17.86C93.4314 17.5029 93.7462 17.2352 94.1314 17.0567C94.5166 16.8688 94.9535 16.7748 95.4421 16.7748ZM102.555 16.7748C103.57 16.7748 104.322 17.0238 104.81 17.5217C105.299 18.0103 105.543 18.7619 105.543 19.7766V22.9617C105.543 23.2717 105.454 23.516 105.275 23.6945C105.097 23.8636 104.848 23.9482 104.528 23.9482C104.228 23.9482 103.983 23.8589 103.795 23.6804C103.617 23.4925 103.528 23.2529 103.528 22.9617V22.863C103.387 23.2107 103.152 23.4831 102.823 23.6804C102.494 23.8777 102.109 23.9764 101.667 23.9764C101.198 23.9764 100.77 23.8824 100.385 23.6945C100.009 23.5066 99.7084 23.2435 99.4829 22.9053C99.2668 22.5671 99.1588 22.1913 99.1588 21.7779C99.1588 21.2705 99.2856 20.8712 99.5393 20.5799C99.8024 20.2887 100.22 20.0773 100.794 19.9458C101.367 19.8142 102.151 19.7485 103.147 19.7485H103.514V19.4948C103.514 19.1002 103.424 18.8136 103.246 18.6351C103.077 18.4566 102.79 18.3673 102.386 18.3673C101.982 18.3673 101.4 18.5083 100.639 18.7901C100.422 18.8935 100.239 18.9451 100.089 18.9451C99.8822 18.9451 99.7178 18.8747 99.5957 18.7337C99.4735 18.5834 99.4125 18.3908 99.4125 18.1559C99.4125 17.968 99.4547 17.813 99.5393 17.6909C99.6239 17.5687 99.7601 17.456 99.948 17.3526C100.277 17.1741 100.676 17.0332 101.146 16.9298C101.625 16.8265 102.095 16.7748 102.555 16.7748ZM102.132 22.5107C102.546 22.5107 102.879 22.3745 103.133 22.102C103.387 21.8201 103.514 21.4584 103.514 21.0168V20.7773H103.274C102.513 20.7773 101.977 20.8383 101.667 20.9605C101.367 21.0826 101.216 21.3034 101.216 21.6228C101.216 21.8859 101.301 22.102 101.47 22.2711C101.649 22.4308 101.869 22.5107 102.132 22.5107ZM100.427 14.7313C100.127 14.5058 99.9762 14.2521 99.9762 13.9703C99.9762 13.7354 100.061 13.5381 100.23 13.3784C100.408 13.2092 100.62 13.1247 100.864 13.1247C101.202 13.1247 101.484 13.2844 101.71 13.6038L102.922 15.2246C103.006 15.3467 103.048 15.4688 103.048 15.591C103.048 15.7413 102.997 15.8681 102.893 15.9715C102.79 16.0748 102.663 16.1265 102.513 16.1265C102.391 16.1265 102.269 16.0795 102.147 15.9856L100.427 14.7313Z" fill="white"/>
<rect y="9.12122" width="26.1364" height="25.2652" fill="#F6F6F6"/>
<circle cx="18.2955" cy="18.7046" r="18.2955" fill="#11A1E2"/>
<circle cx="18.2958" cy="18.7045" r="13.9394" fill="#F6F6F6"/>
<path d="M22.6261 17.1796L21.7826 20.2294H23.6485C24.5345 20.2294 24.9776 20.7114 24.9776 21.6754C24.9776 22.1662 24.8583 22.5518 24.6197 22.8322C24.3982 23.0951 24.0745 23.2266 23.6485 23.2266H20.9391L20.4535 24.9092C20.3002 25.4175 20.0446 25.8118 19.6867 26.0923C19.3459 26.3552 18.9796 26.4866 18.5877 26.4866C18.2298 26.4866 17.9231 26.3727 17.6675 26.1449C17.4119 25.8995 17.2841 25.5665 17.2841 25.1458C17.2841 24.9705 17.3097 24.7777 17.3608 24.5674L17.7442 23.2266H14.7537L14.2681 24.9092C14.1147 25.4175 13.8591 25.8118 13.5013 26.0923C13.1605 26.3552 12.7942 26.4866 12.4022 26.4866C12.0444 26.4866 11.7377 26.3727 11.4821 26.1449C11.2265 25.8995 11.0987 25.5665 11.0987 25.1458C11.0987 24.9705 11.1243 24.7777 11.1754 24.5674L11.5588 23.2266H10.8175C10.3916 23.2266 10.0593 23.0951 9.82072 22.8322C9.58217 22.5518 9.46289 22.1662 9.46289 21.6754C9.46289 21.2022 9.58217 20.8428 9.82072 20.5975C10.0593 20.3521 10.3916 20.2294 10.8175 20.2294H12.4022L13.2713 17.1796H11.8399C11.4139 17.1796 11.0817 17.0482 10.8431 16.7853C10.6046 16.5048 10.4853 16.1192 10.4853 15.6285C10.4853 15.1552 10.6046 14.7959 10.8431 14.5505C11.0817 14.3051 11.4139 14.1825 11.8399 14.1825H14.1147L14.6004 12.4472C14.7367 11.939 14.9752 11.5621 15.316 11.3167C15.6739 11.0538 16.0487 10.9224 16.4407 10.9224C16.8326 10.9224 17.1563 11.0363 17.4119 11.2641C17.6846 11.4745 17.8209 11.7637 17.8209 12.1318C17.8209 12.2895 17.7953 12.4472 17.7442 12.605L17.3097 14.1825H20.3002L20.7858 12.4472C20.9221 11.939 21.1607 11.5621 21.5015 11.3167C21.8593 11.0538 22.2342 10.9224 22.6261 10.9224C23.018 10.9224 23.3417 11.0363 23.5973 11.2641C23.87 11.4745 24.0063 11.7637 24.0063 12.1318C24.0063 12.2895 23.9807 12.4472 23.9296 12.605L23.4951 14.1825H24.6708C25.5569 14.1825 25.9999 14.6645 25.9999 15.6285C25.9999 16.1192 25.8807 16.5048 25.6421 16.7853C25.4206 17.0482 25.0968 17.1796 24.6708 17.1796H22.6261ZM19.4567 17.1796H16.4407L15.5972 20.2294H18.5877L19.4567 17.1796Z" fill="#11A1E2"/>
</svg>
