<svg width="102" height="37" viewBox="0 0 102 37" fill="none" xmlns="http://www.w3.org/2000/svg">
<rect width="102" height="37" rx="4" fill="url(#paint0_linear)"/>
<path d="M50.4766 19.8418C50.3535 20.8945 49.9639 21.708 49.3076 22.2822C48.6559 22.8519 47.7878 23.1367 46.7031 23.1367C45.5273 23.1367 44.584 22.7152 43.873 21.8721C43.1667 21.029 42.8135 19.901 42.8135 18.4883V17.5312C42.8135 16.6061 42.9775 15.7926 43.3057 15.0908C43.6383 14.389 44.1077 13.8512 44.7139 13.4775C45.32 13.0993 46.0218 12.9102 46.8193 12.9102C47.8766 12.9102 48.7243 13.2064 49.3623 13.7988C50.0003 14.3867 50.3717 15.2025 50.4766 16.2461H49.1572C49.0433 15.4531 48.7949 14.8789 48.4121 14.5234C48.0339 14.168 47.5029 13.9902 46.8193 13.9902C45.9808 13.9902 45.3223 14.3001 44.8438 14.9199C44.3698 15.5397 44.1328 16.4215 44.1328 17.5654V18.5293C44.1328 19.6094 44.3584 20.4684 44.8096 21.1064C45.2607 21.7445 45.8919 22.0635 46.7031 22.0635C47.4323 22.0635 47.9906 21.8994 48.3779 21.5713C48.7699 21.2386 49.0296 20.6621 49.1572 19.8418H50.4766ZM53.3408 16.499C53.9014 15.8109 54.6305 15.4668 55.5283 15.4668C57.0915 15.4668 57.8799 16.3486 57.8936 18.1123V23H56.6289V18.1055C56.6243 17.5723 56.5013 17.1781 56.2598 16.9229C56.0228 16.6676 55.6514 16.54 55.1455 16.54C54.7354 16.54 54.3753 16.6494 54.0654 16.8682C53.7555 17.0869 53.514 17.374 53.3408 17.7295V23H52.0762V12.5H53.3408V16.499ZM61.1611 23H59.8965V15.6035H61.1611V23ZM59.7939 13.6416C59.7939 13.4365 59.8555 13.2633 59.9785 13.1221C60.1061 12.9808 60.293 12.9102 60.5391 12.9102C60.7852 12.9102 60.972 12.9808 61.0996 13.1221C61.2272 13.2633 61.291 13.4365 61.291 13.6416C61.291 13.8467 61.2272 14.0176 61.0996 14.1543C60.972 14.291 60.7852 14.3594 60.5391 14.3594C60.293 14.3594 60.1061 14.291 59.9785 14.1543C59.8555 14.0176 59.7939 13.8467 59.7939 13.6416ZM67.7578 23C67.6849 22.8542 67.6257 22.5944 67.5801 22.2207C66.9922 22.8314 66.2904 23.1367 65.4746 23.1367C64.7454 23.1367 64.1462 22.9316 63.6768 22.5215C63.2119 22.1068 62.9795 21.5827 62.9795 20.9492C62.9795 20.179 63.2712 19.582 63.8545 19.1582C64.4424 18.7298 65.2673 18.5156 66.3291 18.5156H67.5596V17.9346C67.5596 17.4925 67.4274 17.1416 67.1631 16.8818C66.8988 16.6175 66.5091 16.4854 65.9941 16.4854C65.543 16.4854 65.1647 16.5993 64.8594 16.8271C64.554 17.055 64.4014 17.3307 64.4014 17.6543H63.1299C63.1299 17.2852 63.2598 16.9297 63.5195 16.5879C63.7839 16.2415 64.1393 15.9681 64.5859 15.7676C65.0371 15.5671 65.5316 15.4668 66.0693 15.4668C66.9215 15.4668 67.5892 15.681 68.0723 16.1094C68.5553 16.5332 68.806 17.1188 68.8242 17.8662V21.2705C68.8242 21.9495 68.9108 22.4896 69.084 22.8906V23H67.7578ZM65.6592 22.0361C66.0557 22.0361 66.4316 21.9336 66.7871 21.7285C67.1426 21.5234 67.4001 21.2568 67.5596 20.9287V19.4111H66.5684C65.0189 19.4111 64.2441 19.8646 64.2441 20.7715C64.2441 21.168 64.3763 21.4779 64.6406 21.7012C64.9049 21.9245 65.2445 22.0361 65.6592 22.0361ZM78.5859 21.0381C78.5859 20.6963 78.4561 20.432 78.1963 20.2451C77.9411 20.0537 77.4922 19.8896 76.8496 19.7529C76.2116 19.6162 75.7035 19.4521 75.3252 19.2607C74.9515 19.0693 74.6735 18.8415 74.4912 18.5771C74.3135 18.3128 74.2246 17.9984 74.2246 17.6338C74.2246 17.0277 74.4798 16.515 74.9902 16.0957C75.5052 15.6764 76.1615 15.4668 76.959 15.4668C77.7975 15.4668 78.4766 15.6833 78.9961 16.1162C79.5202 16.5492 79.7822 17.1029 79.7822 17.7773H78.5107C78.5107 17.431 78.3626 17.1325 78.0664 16.8818C77.7747 16.6312 77.4056 16.5059 76.959 16.5059C76.4987 16.5059 76.1387 16.6061 75.8789 16.8066C75.6191 17.0072 75.4893 17.2692 75.4893 17.5928C75.4893 17.8981 75.61 18.1283 75.8516 18.2832C76.0931 18.4382 76.5283 18.5863 77.1572 18.7275C77.7907 18.8688 78.3034 19.0374 78.6953 19.2334C79.0872 19.4294 79.3766 19.6663 79.5635 19.9443C79.7549 20.2178 79.8506 20.5527 79.8506 20.9492C79.8506 21.61 79.5863 22.141 79.0576 22.542C78.529 22.9385 77.8431 23.1367 77 23.1367C76.4076 23.1367 75.8835 23.0319 75.4277 22.8223C74.972 22.6126 74.6143 22.321 74.3545 21.9473C74.0993 21.569 73.9717 21.1611 73.9717 20.7236H75.2363C75.2591 21.1475 75.4277 21.4847 75.7422 21.7354C76.0612 21.9814 76.4805 22.1045 77 22.1045C77.4785 22.1045 77.8613 22.0088 78.1484 21.8174C78.4401 21.6214 78.5859 21.3617 78.5859 21.0381ZM84.5674 23.1367C83.5648 23.1367 82.749 22.8086 82.1201 22.1523C81.4912 21.4915 81.1768 20.6097 81.1768 19.5068V19.2744C81.1768 18.5407 81.3158 17.8867 81.5938 17.3125C81.8763 16.7337 82.2682 16.2826 82.7695 15.959C83.2754 15.6309 83.8223 15.4668 84.4102 15.4668C85.3717 15.4668 86.1191 15.7835 86.6523 16.417C87.1855 17.0505 87.4521 17.9574 87.4521 19.1377V19.6641H82.4414C82.4596 20.3932 82.6715 20.9834 83.0771 21.4346C83.4873 21.8812 84.0068 22.1045 84.6357 22.1045C85.0824 22.1045 85.4606 22.0133 85.7705 21.8311C86.0804 21.6488 86.3516 21.4072 86.584 21.1064L87.3564 21.708C86.7367 22.6605 85.807 23.1367 84.5674 23.1367ZM84.4102 16.5059C83.8997 16.5059 83.4714 16.6927 83.125 17.0664C82.7786 17.4355 82.5645 17.9551 82.4824 18.625H86.1875V18.5293C86.151 17.8867 85.9779 17.39 85.668 17.0391C85.3581 16.6836 84.9388 16.5059 84.4102 16.5059ZM83.9795 14.4072L83.9727 13.3613C84.3145 13.3385 84.5651 13.293 84.7246 13.2246C84.8841 13.1562 84.9639 13.0332 84.9639 12.8555C84.9639 12.6777 84.859 12.5456 84.6494 12.459C84.4443 12.3678 84.1709 12.3223 83.8291 12.3223L83.877 11.5977C84.556 11.5977 85.071 11.7161 85.4219 11.9531C85.7728 12.1855 85.9482 12.4954 85.9482 12.8828C85.9482 13.1608 85.8594 13.391 85.6816 13.5732C85.5039 13.7555 85.2396 13.8717 84.8887 13.9219L84.8818 14.4072H83.9795Z" fill="white"/>
<rect x="9" y="7" width="23" height="24" rx="2" fill="white"/>
<path d="M24.4908 30.9999V21.8769H27.4391L27.8805 18.3216H24.4908V16.0516C24.4908 15.0222 24.766 14.3207 26.1873 14.3207L28 14.3198V11.1399C27.6864 11.0968 26.6104 11 25.3586 11C22.7452 11 20.9559 12.6568 20.9559 15.6996V18.3217H18V21.877H20.9558V31L24.4908 30.9999Z" fill="#4767B5"/>
<defs>
<linearGradient id="paint0_linear" x1="51" y1="0" x2="51" y2="37" gradientUnits="userSpaceOnUse">
<stop stop-color="#4A6BBA"/>
<stop offset="1" stop-color="#3C5AA3"/>
</linearGradient>
</defs>
</svg>
